1231::25::12	UsersTable
2230::45::1	UsersTable
2344::25::12	UsersTable
2599::25::12	UsersTable
2881::25::12	UsersTable
3268::25::12	UsersTable
4476::45::1	UsersTable
4522::45::1	UsersTable
4537::45::1	UsersTable
4847::25::12	UsersTable
5028::25::12	UsersTable
5174::45::1	UsersTable
5370::25::12	UsersTable
5738::25::12	UsersTable
690::25::12	UsersTable
1786::45::1	UsersTable
187::45::1	UsersTable
284::25::12	UsersTable
4264::45::1	UsersTable
479::25::12	UsersTable
5230::25::12	UsersTable
5474::25::12	UsersTable
5942::45::1	UsersTable
1217::25::12	UsersTable
2128::45::1	UsersTable
4432::25::12	UsersTable
4872::45::1	UsersTable
492::25::12	UsersTable
5707::25::12	UsersTable
670::25::12	UsersTable
810::25::12	UsersTable
2228::25::12	UsersTable
2749::25::12	UsersTable
2927::25::12	UsersTable
3119::45::1	UsersTable
5582::45::1	UsersTable
5742::25::12	UsersTable
6037::45::1	UsersTable
108::25::12	UsersTable
1567::25::12	UsersTable
2038::45::1	UsersTable
2474::25::12	UsersTable
3181::25::12	UsersTable
5136::25::12	UsersTable
971::25::12	UsersTable
1382::45::1	UsersTable
2301::25::12	UsersTable
3447::25::12	UsersTable
3946::25::12	UsersTable
1396::25::12	UsersTable
1840::25::12	UsersTable
2054::25::12	UsersTable
252::25::12	UsersTable
2544::45::1	UsersTable
3428::45::1	UsersTable
3952::45::1	UsersTable
425::25::12	UsersTable
4274::45::1	UsersTable
4351::25::12	UsersTable
5291::45::1	UsersTable
5952::45::1	UsersTable
6016::45::1	UsersTable
661::45::1	UsersTable
2158::25::12	UsersTable
2222::45::1	UsersTable
2408::45::1	UsersTable
4444::25::12	UsersTable
4970::25::12	UsersTable
5265::45::1	UsersTable
5520::45::1	UsersTable
1149::25::12	UsersTable
1886::25::12	UsersTable
2029::25::12	UsersTable
3624::25::12	UsersTable
3819::25::12	UsersTable
4841::25::12	UsersTable
5222::25::12	UsersTable
575::25::12	UsersTable
2291::45::1	UsersTable
3182::25::12	UsersTable
3430::45::1	UsersTable
5315::25::12	UsersTable
1617::25::12	UsersTable
2580::45::1	UsersTable
2719::25::12	UsersTable
3925::25::12	UsersTable
43::25::12	UsersTable
4838::45::1	UsersTable
5024::45::1	UsersTable
564::45::1	UsersTable
5918::25::12	UsersTable
1852::25::12	UsersTable
2932::25::12	UsersTable
3102::25::12	UsersTable
3124::25::12	UsersTable
3157::25::12	UsersTable
35::45::1	UsersTable
3694::25::12	UsersTable
3845::25::12	UsersTable
5270::25::12	UsersTable
5443::25::12	UsersTable
2490::25::12	UsersTable
2836::25::12	UsersTable
3239::25::12	UsersTable
3435::45::1	UsersTable
4197::45::1	UsersTable
4782::45::1	UsersTable
4982::25::12	UsersTable
5385::25::12	UsersTable
6021::25::12	UsersTable
1155::25::12	UsersTable
1492::25::12	UsersTable
1876::25::12	UsersTable
1898::25::12	UsersTable
2918::25::12	UsersTable
3959::45::1	UsersTable
4343::25::12	UsersTable
4538::25::12	UsersTable
554::25::12	UsersTable
972::45::1	UsersTable
1503::25::12	UsersTable
4436::25::12	UsersTable
4593::45::1	UsersTable
183::45::1	UsersTable
2196::25::12	UsersTable
2701::45::1	UsersTable
3010::25::12	UsersTable
3243::25::12	UsersTable
3416::25::12	UsersTable
345::25::12	UsersTable
3953::25::12	UsersTable
4622::25::12	UsersTable
4671::25::12	UsersTable
4855::25::12	UsersTable
4899::25::12	UsersTable
1165::25::12	UsersTable
1376::45::1	UsersTable
1516::25::12	UsersTable
3602::25::12	UsersTable
3877::45::1	UsersTable
5293::25::12	UsersTable
5466::25::12	UsersTable
6009::25::12	UsersTable
3706::25::12	UsersTable
4613::25::12	UsersTable
4624::25::12	UsersTable
4929::45::1	UsersTable
5430::45::1	UsersTable
5616::45::1	UsersTable
1693::25::12	UsersTable
1871::45::1	UsersTable
207::25::12	UsersTable
2551::25::12	UsersTable
3419::45::1	UsersTable
3529::45::1	UsersTable
4892::25::12	UsersTable
522::25::12	UsersTable
533::25::12	UsersTable
5468::25::12	UsersTable
5783::45::1	UsersTable
722::25::12	UsersTable
933::45::1	UsersTable
1597::25::12	UsersTable
220::25::12	UsersTable
3173::25::12	UsersTable
4224::45::1	UsersTable
5351::45::1	UsersTable
5511::45::1	UsersTable
5928::45::1	UsersTable
6024::25::12	UsersTable
648::25::12	UsersTable
859::25::12	UsersTable
918::45::1	UsersTable
12::25::12	UsersTable
1484::25::12	UsersTable
1679::25::12	UsersTable
1950::25::12	UsersTable
195::25::12	UsersTable
2180::25::12	UsersTable
2852::25::12	UsersTable
508::25::12	UsersTable
1193::25::12	UsersTable
1607::45::1	UsersTable
1843::25::12	UsersTable
2224::25::12	UsersTable
288::25::12	UsersTable
2956::25::12	UsersTable
299::25::12	UsersTable
3652::25::12	UsersTable
3885::25::12	UsersTable
488::25::12	UsersTable
5409::45::1	UsersTable
5412::25::12	UsersTable
8::25::12	UsersTable
104::25::12	UsersTable
3057::25::12	UsersTable
3945::45::1	UsersTable
696::25::12	UsersTable
78::45::1	UsersTable
1601::25::12	UsersTable
1694::25::12	UsersTable
1812::25::12	UsersTable
3432::25::12	UsersTable
723::25::12	UsersTable
767::25::12	UsersTable
230::45::1	UsersTable
2689::25::12	UsersTable
2818::25::12	UsersTable
3396::25::12	UsersTable
3709::25::12	UsersTable
3851::25::12	UsersTable
4032::25::12	UsersTable
4265::25::12	UsersTable
4449::25::12	UsersTable
450::45::1	UsersTable
4614::45::1	UsersTable
4773::45::1	UsersTable
4780::25::12	UsersTable
4915::25::12	UsersTable
6014::45::1	UsersTable
1533::45::1	UsersTable
1940::25::12	UsersTable
2154::25::12	UsersTable
2417::45::1	UsersTable
2680::25::12	UsersTable
3012::25::12	UsersTable
5049::25::12	UsersTable
5937::25::12	UsersTable
1367::25::12	UsersTable
2902::25::12	UsersTable
3116::25::12	UsersTable
3198::25::12	UsersTable
4533::25::12	UsersTable
5943::45::1	UsersTable
13::45::1	UsersTable
1427::25::12	UsersTable
198::25::12	UsersTable
5245::45::1	UsersTable
680::25::12	UsersTable
88::45::1	UsersTable
1477::45::1	UsersTable
1651::25::12	UsersTable
1662::25::12	UsersTable
1891::45::1	UsersTable
3677::25::12	UsersTable
5297::25::12	UsersTable
757::25::12	UsersTable
768::25::12	UsersTable
1544::25::12	UsersTable
2343::45::1	UsersTable
2473::25::12	UsersTable
3045::45::1	UsersTable
3191::25::12	UsersTable
3315::25::12	UsersTable
411::45::1	UsersTable
4905::45::1	UsersTable
5056::45::1	UsersTable
5102::25::12	UsersTable
5179::25::12	UsersTable
5694::25::12	UsersTable
5823::25::12	UsersTable
